<?xml version="1.0" encoding="UTF-8"?>
<svg xmlns="http://www.w3.org/2000/svg" xmlns:xlink="http://www.w3.org/1999/xlink" width="1104.78125pt" height="1540.109375pt" viewBox="0 0 1104.78125 1540.109375" version="1.1">
<defs>
<g>
<symbol overflow="visible" id="glyph0-0">
<path style="stroke:none;" d=""/>
</symbol>
<symbol overflow="visible" id="glyph0-1">
<path style="stroke:none;" d="M 74.15625 -125.5625 C 55.765625 -130.546875 46.21875 -136.640625 46.21875 -147.296875 C 46.21875 -157.65625 55.0625 -172.703125 73.140625 -172.703125 L 83.296875 -172.703125 L 83.296875 -203.171875 L 73.140625 -203.171875 C 38.40625 -203.171875 15.234375 -172.296875 15.234375 -143.140625 C 15.234375 -116.921875 33.21875 -104.734375 60.546875 -97.828125 L 100.578125 -87.765625 C 113.578125 -84.515625 136.125 -73.25 136.125 -59.9375 C 136.125 -44.796875 126.578125 -30.46875 108.703125 -30.46875 L 95.484375 -30.46875 L 95.484375 0 L 108.703125 0 C 143.4375 0 166.609375 -28.84375 166.609375 -61.96875 C 166.609375 -90.3125 143.4375 -107.078125 117.328125 -113.984375 Z M 154.3125 -170.96875 C 144.453125 -191.1875 127.28125 -203.171875 105.65625 -203.171875 L 95.484375 -203.171875 L 95.484375 -172.703125 L 105.65625 -172.703125 C 117.84375 -172.703125 126.171875 -165.078125 130.234375 -150.546875 Z M 12.1875 -71.109375 C 12.1875 -30.875 35.359375 0 70.09375 0 L 83.296875 0 L 83.296875 -30.46875 L 70.09375 -30.46875 C 52.21875 -30.46875 42.671875 -46.828125 42.671875 -71.109375 Z M 12.1875 -71.109375 "/>
</symbol>
<symbol overflow="visible" id="glyph0-2">
<path style="stroke:none;" d="M 14.21875 -200.234375 C 14.21875 -199.21875 14.421875 -197.890625 15.34375 -196.46875 L 129.9375 -6.703125 C 132.46875 -2.546875 135.828125 0 137.953125 0 L 162.4375 0 C 165.1875 0 166.609375 -1.015625 166.609375 -2.953125 C 166.609375 -3.96875 166.40625 -5.28125 165.484375 -6.703125 L 50.890625 -196.46875 C 48.359375 -200.640625 46.015625 -203.171875 43.890625 -203.171875 L 18.390625 -203.171875 C 15.640625 -203.171875 14.21875 -202.15625 14.21875 -200.234375 Z M 122.3125 -102 L 163.5625 -197.078125 C 163.859375 -197.890625 164.0625 -198.5 164.0625 -199.21875 C 164.46875 -201.75 162.953125 -203.171875 159.796875 -203.171875 L 139.484375 -203.171875 C 135.515625 -203.171875 132.578125 -201.046875 131.046875 -197.078125 L 102.609375 -134.609375 Z M 12.5 -3.5625 C 12.09375 -1.015625 13.609375 0.40625 16.765625 0.40625 L 37.078125 0.40625 C 41.046875 0.40625 43.890625 -1.734375 45.515625 -5.6875 L 75.890625 -72.53125 L 56.171875 -105.140625 L 13 -5.6875 C 12.796875 -4.875 12.5 -4.265625 12.5 -3.5625 Z M 12.5 -3.5625 "/>
</symbol>
<symbol overflow="visible" id="glyph0-3">
<path style="stroke:none;" d="M 13.203125 -178.796875 C 13.203125 -175.140625 15.640625 -172.703125 19.296875 -172.703125 L 97.734375 -172.703125 L 103.828125 -197.078125 C 104.125 -198.09375 104.234375 -198.90625 104.234375 -199.625 C 104.234375 -201.953125 103.109375 -203.171875 100.78125 -203.171875 L 19.296875 -203.171875 C 15.640625 -203.171875 13.203125 -200.53125 13.203125 -197.078125 Z M 81.578125 -118.453125 C 80.765625 -116.921875 80.359375 -115.609375 80.359375 -114.59375 C 80.359375 -112.765625 81.671875 -111.75 84.421875 -111.75 L 108.796875 -111.75 C 110.9375 -111.75 113.78125 -114.078125 116.015625 -118.453125 L 157.046875 -196.46875 C 157.859375 -198 158.265625 -199.3125 158.265625 -200.328125 C 158.265625 -202.15625 156.953125 -203.171875 154.203125 -203.171875 L 123.328125 -203.171875 C 120.484375 -203.171875 117.125 -201.546875 116.015625 -197.078125 L 109.8125 -172.1875 Z M 13.40625 -6.703125 C 12.59375 -5.1875 12.1875 -3.859375 12.1875 -2.84375 C 12.1875 -1.015625 13.515625 0 16.25 0 L 47.953125 0 C 50.796875 0 54.140625 -1.625 55.265625 -6.09375 L 62.265625 -34.03125 L 93.15625 -92.84375 C 93.96875 -94.375 94.375 -95.6875 94.375 -96.71875 C 94.375 -98.546875 93.046875 -99.5625 90.3125 -99.5625 L 65.9375 -99.5625 C 63.796875 -99.5625 61.046875 -97.21875 58.71875 -92.84375 Z M 67.453125 -6.09375 C 67.25 -5.078125 67.046875 -4.171875 67.046875 -3.359375 C 67.046875 -1.125 68.265625 0 70.5 0 L 160.515625 0 C 164.171875 0 166.609375 -2.640625 166.609375 -6.09375 L 166.609375 -24.375 C 166.609375 -28.03125 164.171875 -30.46875 160.515625 -30.46875 L 73.546875 -30.46875 Z M 67.453125 -6.09375 "/>
</symbol>
<symbol overflow="visible" id="glyph0-4">
<path style="stroke:none;" d="M 36.578125 0 C 40.53125 0 42.671875 -2.140625 42.671875 -6.09375 L 42.671875 -197.078125 C 42.671875 -201.046875 40.53125 -203.171875 36.578125 -203.171875 L 18.28125 -203.171875 C 14.328125 -203.171875 12.1875 -201.046875 12.1875 -197.078125 L 12.1875 -6.09375 C 12.1875 -2.140625 14.328125 0 18.28125 0 Z M 160.515625 0 C 164.46875 0 166.609375 -2.140625 166.609375 -6.09375 L 166.609375 -197.078125 C 166.609375 -201.046875 164.46875 -203.171875 160.515625 -203.171875 L 142.21875 -203.171875 C 138.265625 -203.171875 136.125 -201.046875 136.125 -197.078125 L 136.125 -6.09375 C 136.125 -2.140625 138.265625 0 142.21875 0 Z M 114.796875 -89.90625 C 120.78125 -89.90625 123.9375 -92.234375 123.9375 -96.515625 L 123.9375 -115.703125 C 123.9375 -119.96875 120.6875 -122.203125 114.59375 -122.203125 L 62.265625 -122.203125 C 57.5 -122.203125 54.859375 -120.171875 54.859375 -116.421875 L 54.859375 -94.984375 C 54.859375 -91.625 57.5 -89.90625 62.265625 -89.90625 Z M 114.796875 -89.90625 "/>
</symbol>
<symbol overflow="visible" id="glyph0-5">
<path style="stroke:none;" d="M 12.1875 -179.296875 C 12.1875 -175.546875 15.84375 -172.703125 21.328125 -172.703125 L 157.453125 -172.703125 C 162.953125 -172.703125 166.609375 -175.546875 166.609375 -179.296875 L 166.609375 -196.671875 C 166.609375 -200.53125 162.84375 -203.171875 157.25 -203.171875 L 21.53125 -203.171875 C 15.953125 -203.171875 12.1875 -200.53125 12.1875 -196.671875 Z M 73.140625 -4.46875 C 73.140625 -1.53125 75.375 0 79.03125 0 L 100.78125 0 C 103.71875 0 105.65625 -2.03125 105.65625 -5.6875 L 105.65625 -155.9375 C 105.65625 -158.671875 104.234375 -160.515625 101.484375 -160.515625 L 79.953125 -160.515625 C 75.484375 -160.515625 73.140625 -158.171875 73.140625 -153.90625 Z M 73.140625 -4.46875 "/>
</symbol>
<symbol overflow="visible" id="glyph0-6">
<path style="stroke:none;" d="M 42.671875 -203.171875 L 12.1875 -203.171875 L 12.1875 -77.203125 C 12.1875 -30.875 32.3125 0 67.046875 0 L 83.296875 0 L 83.296875 -30.46875 L 67.046875 -30.46875 C 49.171875 -30.46875 42.671875 -46.828125 42.671875 -77.203125 Z M 136.125 -77.203125 C 136.125 -46.828125 129.625 -30.46875 111.75 -30.46875 L 95.484375 -30.46875 L 95.484375 0 L 111.75 0 C 146.484375 0 166.609375 -30.875 166.609375 -77.203125 L 166.609375 -203.171875 L 136.125 -203.171875 Z M 136.125 -77.203125 "/>
</symbol>
<symbol overflow="visible" id="glyph0-7">
<path style="stroke:none;" d="M 71.921875 -95.390625 C 73.34375 -92.953125 73.65625 -90.71875 73.65625 -87.875 L 73.65625 -4.46875 C 73.65625 -1.53125 75.890625 0 79.546875 0 L 100.265625 0 C 103.21875 0 105.140625 -2.03125 105.140625 -5.6875 L 105.140625 -94.875 C 105.140625 -98.140625 104.328125 -100.578125 103.421875 -102.203125 L 48.453125 -196.46875 C 46.015625 -200.640625 43.578125 -203.171875 41.453125 -203.171875 L 16.359375 -203.171875 C 13.609375 -203.171875 12.1875 -202.15625 12.1875 -200.234375 C 12.1875 -199.21875 12.5 -197.890625 13.3125 -196.46875 Z M 110.9375 -113.375 C 112.859375 -110.125 114.484375 -109.3125 116.921875 -113.375 L 166 -197.078125 C 166.5 -197.890625 166.609375 -198.703125 166.609375 -199.421875 C 166.609375 -201.75 164.46875 -203.171875 161.421875 -203.171875 L 140.09375 -203.171875 C 136.125 -203.171875 134.8125 -200.53125 132.46875 -197.078125 L 97.21875 -143.546875 C 96.609375 -142.53125 96.515625 -141.3125 96.515625 -140.1875 C 96.515625 -138.96875 96.71875 -137.75 97.125 -137.046875 Z M 110.9375 -113.375 "/>
</symbol>
<symbol overflow="visible" id="glyph0-8">
<path style="stroke:none;" d="M 27.125 -203.171875 C 22.65625 -203.171875 20.3125 -200.84375 20.3125 -196.578125 L 20.3125 -139.171875 C 20.3125 -135.21875 22.453125 -133.078125 26.40625 -133.078125 L 44.703125 -133.078125 C 48.65625 -133.078125 50.796875 -135.21875 50.796875 -139.171875 L 50.796875 -166.609375 C 50.796875 -170.5625 52.921875 -172.703125 56.890625 -172.703125 L 108.703125 -172.703125 C 126.578125 -172.703125 136.125 -156.34375 136.125 -125.96875 L 136.125 -115.8125 C 136.125 -111.84375 138.265625 -109.71875 142.21875 -109.71875 L 160.515625 -109.71875 C 164.46875 -109.71875 166.609375 -111.84375 166.609375 -115.8125 L 166.609375 -125.96875 C 166.609375 -172.296875 143.4375 -203.171875 108.703125 -203.171875 Z M 65.328125 -114.796875 C 65.328125 -118.34375 61.5625 -120.890625 55.96875 -120.890625 L 17.578125 -120.890625 C 15.140625 -120.890625 10.15625 -117.9375 10.15625 -115.40625 L 10.15625 -95.1875 C 10.15625 -92.34375 13.921875 -90.40625 17.578125 -90.40625 L 56.171875 -90.40625 C 61.65625 -90.40625 65.328125 -93.046875 65.328125 -96.609375 Z M 142.21875 -97.53125 C 138.265625 -97.53125 136.125 -95.390625 136.125 -91.421875 L 136.125 -77.203125 C 136.125 -46.828125 126.578125 -30.46875 108.703125 -30.46875 L 56.890625 -30.46875 C 52.921875 -30.46875 50.796875 -32.609375 50.796875 -36.578125 L 50.796875 -72.125 C 50.796875 -76.09375 48.65625 -78.21875 44.703125 -78.21875 L 26.40625 -78.21875 C 22.453125 -78.21875 20.3125 -76.09375 20.3125 -72.125 L 20.3125 -4.46875 C 20.3125 -1.53125 22.546875 0 26.203125 0 L 108.703125 0 C 143.4375 0 166.609375 -30.875 166.609375 -77.203125 L 166.609375 -91.421875 C 166.609375 -95.390625 164.46875 -97.53125 160.515625 -97.53125 Z M 142.21875 -97.53125 "/>
</symbol>
<symbol overflow="visible" id="glyph0-9">
<path style="stroke:none;" d="M 12.1875 -77.203125 C 12.1875 -30.875 35.359375 0 70.09375 0 L 83.296875 0 L 83.296875 -30.46875 L 70.09375 -30.46875 C 52.21875 -30.46875 42.671875 -46.828125 42.671875 -77.203125 L 42.671875 -125.96875 C 42.671875 -156.34375 52.21875 -172.703125 70.09375 -172.703125 L 83.296875 -172.703125 L 83.296875 -203.171875 L 70.09375 -203.171875 C 35.359375 -203.171875 12.1875 -172.296875 12.1875 -125.96875 Z M 95.484375 -203.171875 L 95.484375 -172.703125 L 108.703125 -172.703125 C 126.578125 -172.703125 136.125 -156.34375 136.125 -125.96875 L 136.125 -77.203125 C 136.125 -46.828125 126.578125 -30.46875 108.703125 -30.46875 L 95.484375 -30.46875 L 95.484375 0 L 108.703125 0 C 143.4375 0 166.609375 -30.875 166.609375 -77.203125 L 166.609375 -125.96875 C 166.609375 -172.296875 143.4375 -203.171875 108.703125 -203.171875 Z M 95.484375 -203.171875 "/>
</symbol>
<symbol overflow="visible" id="glyph0-10">
<path style="stroke:none;" d="M 12.1875 -77.203125 C 12.1875 -30.875 35.359375 0 70.09375 0 L 83.296875 0 L 83.296875 -30.46875 L 70.09375 -30.46875 C 52.21875 -30.46875 42.671875 -46.828125 42.671875 -77.203125 L 42.671875 -125.96875 C 42.671875 -156.34375 52.21875 -172.703125 70.09375 -172.703125 L 83.296875 -172.703125 L 83.296875 -203.171875 L 70.09375 -203.171875 C 35.359375 -203.171875 12.1875 -172.296875 12.1875 -125.96875 Z M 166.609375 -162.4375 C 157.65625 -187.734375 133.1875 -203.171875 108.703125 -203.171875 L 95.484375 -203.171875 L 95.484375 -172.703125 L 108.703125 -172.703125 C 123.421875 -172.703125 138.5625 -161.625 144.65625 -144.046875 Z M 102.90625 -104.640625 C 100.46875 -104.640625 95.484375 -101.6875 95.484375 -99.15625 L 95.484375 -78.9375 C 95.484375 -76.09375 99.25 -74.15625 102.90625 -74.15625 L 157.453125 -74.15625 C 162.953125 -74.15625 166.609375 -76.796875 166.609375 -80.359375 L 166.609375 -98.546875 C 166.609375 -102.09375 162.84375 -104.640625 157.25 -104.640625 Z M 136.125 -61.96875 C 136.125 -41.546875 126.578125 -30.46875 108.703125 -30.46875 L 95.484375 -30.46875 L 95.484375 0 L 108.703125 0 C 141.8125 0 164.46875 -28.03125 166.5 -57.59375 C 166.609375 -60.140625 164.671875 -61.96875 162.234375 -61.96875 Z M 136.125 -61.96875 "/>
</symbol>
<symbol overflow="visible" id="glyph0-11">
<path style="stroke:none;" d="M 12.1875 -77.203125 C 12.1875 -30.875 35.359375 0 70.09375 0 L 83.296875 0 L 83.296875 -30.46875 L 70.09375 -30.46875 C 52.21875 -30.46875 42.671875 -46.828125 42.671875 -77.203125 L 42.671875 -125.96875 C 42.671875 -156.34375 52.21875 -172.703125 70.09375 -172.703125 L 83.296875 -172.703125 L 83.296875 -203.171875 L 70.09375 -203.171875 C 35.359375 -203.171875 12.1875 -172.296875 12.1875 -125.96875 Z M 166.609375 -162.4375 C 157.65625 -187.734375 133.1875 -203.171875 108.703125 -203.171875 L 95.484375 -203.171875 L 95.484375 -172.703125 L 108.703125 -172.703125 C 123.421875 -172.703125 138.5625 -161.625 144.65625 -144.046875 Z M 95.484375 -30.46875 L 95.484375 0 L 108.703125 0 C 133.1875 0 157.65625 -15.4375 166.609375 -40.734375 L 144.65625 -59.125 C 138.5625 -41.546875 123.421875 -30.46875 108.703125 -30.46875 Z M 95.484375 -30.46875 "/>
</symbol>
<symbol overflow="visible" id="glyph0-12">
<path style="stroke:none;" d="M 136.125 -77.203125 C 136.125 -46.828125 126.578125 -30.46875 108.703125 -30.46875 L 95.484375 -30.46875 L 95.484375 0 L 108.703125 0 C 143.4375 0 166.609375 -30.875 166.609375 -77.203125 L 166.609375 -203.171875 L 136.125 -203.171875 Z M 12.1875 -40.734375 C 21.125 -15.4375 45.609375 0 70.09375 0 L 83.296875 0 L 83.296875 -30.46875 L 70.09375 -30.46875 C 55.359375 -30.46875 40.234375 -41.546875 34.140625 -59.125 Z M 12.1875 -40.734375 "/>
</symbol>
<symbol overflow="visible" id="glyph0-13">
<path style="stroke:none;" d="M 42.671875 -125.96875 C 42.671875 -156.34375 52.21875 -172.703125 70.09375 -172.703125 L 83.296875 -172.703125 L 83.296875 -203.171875 L 70.09375 -203.171875 C 35.359375 -203.171875 12.1875 -172.296875 12.1875 -125.96875 L 12.1875 -77.203125 C 12.1875 -30.875 35.359375 0 70.09375 0 L 70.09375 -30.46875 C 52.21875 -30.46875 42.671875 -46.828125 42.671875 -77.203125 Z M 95.484375 -203.171875 L 95.484375 -172.703125 L 108.703125 -172.703125 C 126.578125 -172.703125 136.125 -156.34375 136.125 -125.96875 L 136.125 -77.203125 C 136.125 -58 132.265625 -44.390625 124.953125 -36.984375 L 124.953125 -2.4375 C 150.453125 -10.671875 166.609375 -38.609375 166.609375 -77.203125 L 166.609375 -125.96875 C 166.609375 -172.296875 143.4375 -203.171875 108.703125 -203.171875 Z M 112.765625 -1.015625 L 112.765625 -29.453125 C 112.765625 -75.78125 89.59375 -106.671875 54.859375 -106.671875 L 54.859375 -76.1875 C 72.734375 -76.1875 82.28125 -59.828125 82.28125 -29.453125 L 82.28125 -1.015625 C 82.28125 45.3125 105.453125 76.1875 140.1875 76.1875 L 140.1875 45.71875 C 122.3125 45.71875 112.765625 29.359375 112.765625 -1.015625 Z M 112.765625 -1.015625 "/>
</symbol>
<symbol overflow="visible" id="glyph0-14">
<path style="stroke:none;" d="M 12.1875 -4.46875 C 12.1875 -1.53125 14.421875 0 18.078125 0 L 37.796875 0 C 40.734375 0 42.671875 -2.03125 42.671875 -5.6875 L 42.671875 -198.609375 C 42.671875 -201.34375 41.25 -203.171875 38.5 -203.171875 L 19 -203.171875 C 14.53125 -203.171875 12.1875 -200.84375 12.1875 -196.578125 Z M 54.859375 -59.625 C 65.53125 -53.9375 77.609375 -50.796875 90.40625 -50.796875 C 132.46875 -50.796875 166.609375 -84.921875 166.609375 -126.984375 C 166.609375 -169.046875 132.46875 -203.171875 90.40625 -203.171875 C 77.609375 -203.171875 65.53125 -203.171875 54.859375 -201.140625 L 54.859375 -172.703125 L 90.40625 -172.703125 C 115.703125 -172.703125 136.125 -152.28125 136.125 -126.984375 C 136.125 -101.6875 115.703125 -81.265625 90.40625 -81.265625 C 75.984375 -81.265625 63.1875 -87.875 54.859375 -98.234375 Z M 54.859375 -59.625 "/>
</symbol>
<symbol overflow="visible" id="glyph0-15">
<path style="stroke:none;" d="M 12.1875 -4.46875 C 12.1875 -1.53125 14.421875 0 18.078125 0 L 37.796875 0 C 40.734375 0 42.671875 -2.03125 42.671875 -5.6875 L 42.671875 -198.609375 C 42.671875 -201.34375 41.25 -203.171875 38.5 -203.171875 L 19 -203.171875 C 14.53125 -203.171875 12.1875 -200.84375 12.1875 -196.578125 Z M 90.40625 -172.703125 C 115.703125 -172.703125 136.125 -152.28125 136.125 -126.984375 C 136.125 -103.421875 118.453125 -84.109375 95.59375 -81.578125 L 123.328125 -58.203125 C 148.921875 -70.5 166.609375 -96.71875 166.609375 -126.984375 C 166.609375 -169.046875 132.46875 -203.171875 90.40625 -203.171875 C 77.609375 -203.171875 65.53125 -203.171875 54.859375 -201.140625 L 54.859375 -172.703125 Z M 54.859375 -60.03125 L 145.0625 15.75 C 146.28125 16.765625 147.703125 17.265625 149.125 17.265625 C 150.859375 17.265625 152.484375 16.5625 153.796875 14.9375 L 164.78125 1.9375 C 166 0.515625 166.609375 -1.125 166.609375 -2.75 C 166.609375 -4.78125 165.59375 -6.90625 163.859375 -8.328125 L 54.859375 -99.765625 Z M 54.859375 -60.03125 "/>
</symbol>
<symbol overflow="visible" id="glyph0-16">
<path style="stroke:none;" d="M 12.1875 -4.578125 C 12.1875 -1.625 14.421875 -0.109375 18.078125 -0.109375 L 38.8125 -0.109375 C 41.75 -0.109375 43.6875 -2.140625 43.6875 -5.796875 L 43.6875 -198.609375 C 43.6875 -201.34375 42.265625 -203.171875 39.515625 -203.171875 L 19 -203.171875 C 14.53125 -203.171875 12.1875 -200.84375 12.1875 -196.578125 Z M 88.6875 -117.53125 L 163.15625 -193.421875 C 164.578125 -194.84375 165.390625 -196.984375 165.390625 -198.90625 C 165.390625 -201.25 164.171875 -203.171875 161.421875 -203.171875 L 133.28125 -203.171875 C 129.734375 -203.171875 127.59375 -200.84375 125.15625 -198.296875 L 68.875 -140.90625 Z M 55.875 -93.046875 C 55.875 -91.421875 56.171875 -89.90625 57.1875 -88.6875 L 129.328125 -3.359375 C 130.84375 -1.53125 132.265625 0 135.421875 0 L 162.140625 0 C 164.875 0 166.609375 -2.4375 166.609375 -4.78125 C 166.609375 -5.890625 166.203125 -7.015625 165.390625 -7.921875 L 63.390625 -128.515625 C 62.46875 -129.625 61.15625 -130.234375 60.03125 -130.234375 C 59.015625 -130.234375 58.109375 -129.828125 57.296875 -129.015625 C 56.484375 -128.203125 55.875 -126.375 55.875 -124.4375 Z M 55.875 -93.046875 "/>
</symbol>
<symbol overflow="visible" id="glyph0-17">
<path style="stroke:none;" d="M 160.515625 0.203125 C 164.46875 0.203125 166.609375 -1.9375 166.609375 -5.890625 L 166.609375 -198.703125 C 166.609375 -202.671875 164.46875 -204.796875 160.515625 -204.796875 L 135.515625 -204.796875 C 132.984375 -204.796875 130.75 -203.171875 129.9375 -200.640625 L 110.421875 -141.8125 L 136.125 -120.28125 L 136.125 -5.890625 C 136.125 -1.9375 138.265625 0.203125 142.21875 0.203125 Z M 87.875 -0.8125 C 88.78125 -0.8125 89.703125 -2.03125 90.40625 -3.859375 L 131.453125 -108.296875 L 106.359375 -129.328125 L 92.953125 -88.890625 C 91.9375 -85.9375 90.40625 -83.609375 89.5 -83.609375 C 88.578125 -83.609375 86.953125 -85.9375 85.9375 -88.890625 L 47.84375 -196.671875 C 46.328125 -200.9375 43.171875 -203.171875 38.8125 -203.171875 L 18.28125 -203.171875 C 14.328125 -203.171875 12.1875 -201.046875 12.1875 -197.078125 L 12.1875 -154.921875 L 42.765625 -129.328125 L 85.125 -3.859375 C 85.84375 -2.03125 86.953125 -0.8125 87.875 -0.8125 Z M 36.671875 0.203125 C 40.640625 0.203125 42.765625 -1.9375 42.765625 -5.890625 L 42.765625 -113.375 L 12.1875 -138.96875 L 12.1875 -5.890625 C 12.1875 -1.9375 14.421875 0.203125 18.390625 0.203125 Z M 36.671875 0.203125 "/>
</symbol>
<symbol overflow="visible" id="glyph0-18">
<path style="stroke:none;" d="M 39.828125 -42.671875 C 42.765625 -42.671875 44.703125 -44.703125 44.703125 -48.359375 L 44.703125 -198.609375 C 44.703125 -201.34375 43.28125 -203.171875 40.53125 -203.171875 L 19 -203.171875 C 14.53125 -203.171875 12.1875 -200.84375 12.1875 -196.578125 L 12.1875 -47.140625 C 12.1875 -44.1875 14.421875 -42.671875 18.078125 -42.671875 Z M 160.515625 0 C 164.171875 0 166.609375 -2.640625 166.609375 -6.09375 L 166.609375 -24.375 C 166.609375 -28.03125 164.171875 -30.46875 160.515625 -30.46875 L 18.28125 -30.46875 C 16.25 -30.46875 12.1875 -27.125 12.1875 -24.375 L 12.1875 -6.09375 C 12.1875 -2.4375 15.234375 0 18.28125 0 Z M 160.515625 0 "/>
</symbol>
<symbol overflow="visible" id="glyph0-19">
<path style="stroke:none;" d="M 19 -203.171875 C 14.53125 -203.171875 12.1875 -200.84375 12.1875 -196.578125 L 12.1875 -4.46875 C 12.1875 -1.53125 14.421875 0 18.078125 0 L 72.03125 0 C 74.359375 0 76.1875 -1.828125 76.1875 -4.171875 L 76.1875 -26.3125 C 76.1875 -28.640625 74.359375 -30.46875 72.03125 -30.46875 L 48.765625 -30.46875 C 44.796875 -30.46875 42.671875 -32.609375 42.671875 -36.578125 L 42.671875 -166.609375 C 42.671875 -170.5625 44.796875 -172.703125 48.765625 -172.703125 L 72.03125 -172.703125 C 74.359375 -172.703125 76.1875 -174.53125 76.1875 -176.859375 L 76.1875 -199.015625 C 76.1875 -201.34375 74.359375 -203.171875 72.03125 -203.171875 Z M 92.546875 -203.171875 C 90.203125 -203.171875 88.375 -201.34375 88.375 -199.015625 L 88.375 -176.859375 C 88.375 -174.53125 90.203125 -172.703125 92.546875 -172.703125 L 108.703125 -172.703125 C 126.578125 -172.703125 136.125 -156.34375 136.125 -125.96875 L 136.125 -115.8125 C 136.125 -111.84375 138.265625 -109.71875 142.21875 -109.71875 L 160.515625 -109.71875 C 164.46875 -109.71875 166.609375 -111.84375 166.609375 -115.8125 L 166.609375 -125.96875 C 166.609375 -172.296875 143.4375 -203.171875 108.703125 -203.171875 Z M 142.21875 -97.53125 C 138.265625 -97.53125 136.125 -95.390625 136.125 -91.421875 L 136.125 -77.203125 C 136.125 -46.828125 126.578125 -30.46875 108.703125 -30.46875 L 92.546875 -30.46875 C 90.203125 -30.46875 88.375 -28.640625 88.375 -26.3125 L 88.375 -4.171875 C 88.375 -1.828125 90.203125 0 92.546875 0 L 108.703125 0 C 143.4375 0 166.609375 -30.875 166.609375 -77.203125 L 166.609375 -91.421875 C 166.609375 -95.390625 164.46875 -97.53125 160.515625 -97.53125 Z M 142.21875 -97.53125 "/>
</symbol>
<symbol overflow="visible" id="glyph0-20">
<path style="stroke:none;" d="M 42.671875 -177.78125 C 42.671875 -174.734375 46.421875 -172.703125 50.078125 -172.703125 L 69.59375 -172.703125 C 71.71875 -172.703125 73.453125 -174.125 73.65625 -176.359375 L 75.578125 -198.5 C 75.78125 -201.140625 73.953125 -203.171875 71.3125 -203.171875 L 50.078125 -203.171875 C 47.640625 -203.171875 42.671875 -200.03125 42.671875 -197.390625 Z M 56.078125 -4.46875 C 55.5625 -1.53125 57.5 0 61.15625 0 L 85.125 0 C 88.078125 0 90.71875 -2.03125 91.015625 -5.6875 L 93.15625 -30.46875 L 122.8125 -198.609375 C 123.328125 -201.34375 122.203125 -203.171875 119.46875 -203.171875 L 95.890625 -203.171875 C 91.421875 -203.171875 88.28125 -200.84375 87.875 -196.578125 L 85.734375 -172.703125 Z M 157.453125 -172.703125 C 162.953125 -172.703125 166.609375 -175.546875 166.609375 -179.296875 L 166.609375 -196.671875 C 166.609375 -200.53125 162.84375 -203.171875 157.25 -203.171875 L 139.28125 -203.171875 C 137.34375 -203.171875 135.71875 -201.953125 135.421875 -199.921875 L 131.5625 -177.875 C 131.046875 -174.9375 132.984375 -172.703125 135.828125 -172.703125 Z M 12.1875 -5.078125 C 12.1875 -2.03125 15.953125 0 19.609375 0 L 39.71875 0 C 41.65625 0 43.28125 -1.21875 43.578125 -3.25 L 47.4375 -25.296875 C 47.953125 -28.234375 46.015625 -30.46875 43.171875 -30.46875 L 19.609375 -30.46875 C 17.171875 -30.46875 12.1875 -27.328125 12.1875 -24.6875 Z M 126.984375 0 C 132.46875 0 136.125 -2.84375 136.125 -6.609375 L 136.125 -23.96875 C 136.125 -27.828125 132.375 -30.46875 126.78125 -30.46875 L 109.3125 -30.46875 C 107.171875 -30.46875 105.453125 -29.046875 105.25 -26.8125 L 103.421875 -4.671875 C 103.21875 -2.140625 105.046875 0 107.6875 0 Z M 126.984375 0 "/>
</symbol>
<symbol overflow="visible" id="glyph0-21">
<path style="stroke:none;" d="M 12.1875 -203.171875 L 69.28125 -6.40625 C 70.5 -2.140625 73.34375 0 77.109375 0 L 96.40625 0 C 100.578125 0 102.296875 -2.34375 101.078125 -6.40625 L 45.8125 -196.671875 C 44.59375 -200.9375 42.0625 -203.171875 38.8125 -203.171875 Z M 110.421875 -31.59375 C 112.046875 -31.59375 113.875 -34.4375 115.5 -39.71875 L 166.609375 -203.171875 L 137.453125 -203.171875 C 134.609375 -203.171875 132.46875 -201.046875 131.046875 -196.671875 L 92.546875 -80.5625 L 104.234375 -39.71875 C 105.65625 -34.34375 108.1875 -31.59375 110.421875 -31.59375 Z M 110.421875 -31.59375 "/>
</symbol>
<symbol overflow="visible" id="glyph0-22">
<path style="stroke:none;" d="M 18.078125 -203.171875 C 14.421875 -203.171875 12.1875 -201.65625 12.1875 -198.703125 L 12.1875 -6.609375 C 12.1875 -2.34375 14.53125 0 19 0 L 38.5 0 C 41.25 0 42.671875 -1.828125 42.671875 -4.578125 L 42.671875 -197.484375 C 42.671875 -201.140625 40.734375 -203.171875 37.796875 -203.171875 Z M 86.140625 -91.421875 C 116.921875 -91.421875 142.015625 -116.515625 142.015625 -147.296875 C 142.015625 -178.078125 116.921875 -203.171875 86.140625 -203.171875 L 62.265625 -203.171875 C 59.828125 -203.171875 54.859375 -200.234375 54.859375 -197.6875 L 54.859375 -177.46875 C 54.859375 -174.625 58.609375 -172.703125 62.265625 -172.703125 L 86.140625 -172.703125 C 100.171875 -172.703125 111.546875 -161.328125 111.546875 -147.296875 C 111.546875 -133.28125 100.171875 -121.90625 86.140625 -121.90625 L 62.265625 -121.90625 C 59.828125 -121.90625 54.859375 -118.953125 54.859375 -116.421875 L 54.859375 -96.203125 C 54.859375 -93.359375 58.609375 -91.421875 62.265625 -91.421875 Z M 132.578125 -93.859375 C 134.90625 -88.375 136.125 -82.484375 136.125 -76.1875 C 136.125 -50.890625 115.703125 -30.46875 90.40625 -30.46875 L 54.859375 -30.46875 L 54.859375 0 L 90.40625 0 C 132.46875 0 166.609375 -34.140625 166.609375 -76.1875 C 166.609375 -93.96875 160.515625 -110.328125 150.25 -123.328125 Z M 132.578125 -93.859375 "/>
</symbol>
<symbol overflow="visible" id="glyph0-23">
<path style="stroke:none;" d="M 37.796875 0 C 40.734375 0 42.671875 -2.03125 42.671875 -5.6875 L 42.671875 -198.609375 C 42.671875 -201.34375 41.25 -203.171875 38.5 -203.171875 L 19 -203.171875 C 14.53125 -203.171875 12.1875 -200.84375 12.1875 -196.578125 L 12.1875 -4.46875 C 12.1875 -1.53125 14.421875 0 18.078125 0 Z M 153.390625 -172.703125 C 158.875 -172.703125 162.546875 -175.4375 162.546875 -179.203125 L 162.546875 -196.78125 C 162.546875 -200.640625 158.78125 -203.171875 153.1875 -203.171875 L 62.171875 -203.171875 C 59.734375 -203.171875 54.75 -200.125 54.75 -197.484375 L 54.75 -177.671875 C 54.75 -174.734375 58.515625 -172.703125 62.171875 -172.703125 Z M 147.296875 -89.390625 C 152.78125 -89.390625 156.4375 -92.03125 156.4375 -95.59375 L 156.4375 -113.78125 C 156.4375 -117.328125 152.6875 -119.875 147.09375 -119.875 L 62.265625 -119.875 C 59.828125 -119.875 54.859375 -116.921875 54.859375 -114.390625 L 54.859375 -94.171875 C 54.859375 -91.328125 58.609375 -89.390625 62.265625 -89.390625 Z M 157.453125 0 C 162.953125 0 166.609375 -2.84375 166.609375 -6.609375 L 166.609375 -23.96875 C 166.609375 -27.828125 162.84375 -30.46875 157.25 -30.46875 L 62.265625 -30.46875 C 59.828125 -30.46875 54.859375 -27.328125 54.859375 -24.6875 L 54.859375 -5.078125 C 54.859375 -2.03125 58.609375 0 62.265625 0 Z M 157.453125 0 "/>
</symbol>
<symbol overflow="visible" id="glyph0-24">
<path style="stroke:none;" d="M 38.8125 0 C 42.0625 0 44.59375 -2.234375 45.8125 -6.5 L 101.078125 -196.78125 C 102.296875 -200.84375 100.578125 -203.171875 96.40625 -203.171875 L 77.109375 -203.171875 C 73.34375 -203.171875 70.5 -201.046875 69.28125 -196.78125 L 12.1875 0 Z M 131.046875 -6.5 C 132.46875 -2.140625 134.609375 0 137.453125 0 L 166.609375 0 L 115.5 -163.453125 C 113.875 -168.734375 112.046875 -171.578125 110.421875 -171.578125 C 108.1875 -171.578125 105.75 -168.84375 104.234375 -163.453125 L 92.546875 -122.609375 Z M 110.21875 -30.46875 L 100.0625 -60.953125 L 74.359375 -60.953125 L 65.421875 -30.46875 Z M 110.21875 -30.46875 "/>
</symbol>
<symbol overflow="visible" id="glyph0-25">
<path style="stroke:none;" d="M 39.828125 0 C 42.765625 0 44.703125 -2.03125 44.703125 -5.6875 L 44.703125 -198.609375 C 44.703125 -201.34375 43.28125 -203.171875 40.53125 -203.171875 L 19 -203.171875 C 14.53125 -203.171875 12.1875 -200.84375 12.1875 -196.578125 L 12.1875 -4.46875 C 12.1875 -1.53125 14.421875 0 18.078125 0 Z M 157.453125 -172.703125 C 162.953125 -172.703125 166.609375 -175.546875 166.609375 -179.296875 L 166.609375 -196.671875 C 166.609375 -200.53125 162.84375 -203.171875 157.25 -203.171875 L 64.3125 -203.171875 C 61.859375 -203.171875 56.890625 -200.03125 56.890625 -197.390625 L 56.890625 -177.78125 C 56.890625 -174.734375 60.640625 -172.703125 64.3125 -172.703125 Z M 137.140625 -87.359375 C 142.625 -87.359375 146.28125 -90.203125 146.28125 -93.96875 L 146.28125 -113.375 C 146.28125 -117.234375 142.53125 -119.875 136.9375 -119.875 L 64.3125 -119.875 C 61.859375 -119.875 56.890625 -116.71875 56.890625 -114.078125 L 56.890625 -92.4375 C 56.890625 -89.390625 60.640625 -87.359375 64.3125 -87.359375 Z M 137.140625 -87.359375 "/>
</symbol>
<symbol overflow="visible" id="glyph0-26">
<path style="stroke:none;" d="M 160.515625 -0.3125 C 164.46875 -0.3125 166.609375 -2.4375 166.609375 -6.40625 L 166.609375 -34.75 L 136.125 -60.234375 L 50.484375 -197.890625 C 47.84375 -202.15625 45.609375 -204.59375 43.484375 -204.59375 L 18.28125 -204.59375 C 14.328125 -204.59375 12.1875 -202.265625 12.1875 -197.890625 L 12.1875 -176.5625 L 42.671875 -151.0625 L 132.46875 -6.40625 C 134.90625 -2.546875 137.140625 -0.3125 140.296875 -0.3125 Z M 166.609375 -50.6875 L 166.609375 -197.078125 C 166.609375 -201.046875 164.46875 -203.171875 160.515625 -203.171875 L 142.21875 -203.171875 C 138.265625 -203.171875 136.125 -201.046875 136.125 -197.078125 L 136.125 -76.1875 Z M 36.578125 0.40625 C 40.53125 0.40625 42.671875 -1.734375 42.671875 -5.6875 L 42.671875 -135.109375 L 12.1875 -160.609375 L 12.1875 -5.6875 C 12.1875 -1.734375 14.328125 0.40625 18.28125 0.40625 Z M 36.578125 0.40625 "/>
</symbol>
<symbol overflow="visible" id="glyph0-27">
<path style="stroke:none;" d="M 30.0625 -196.671875 C 29.046875 -200.9375 26.609375 -203.171875 23.359375 -203.171875 L 16.359375 -203.171875 C 14.015625 -203.171875 12.1875 -201.34375 12.1875 -199.015625 L 12.1875 -142.21875 L 45.609375 -6.40625 C 46.625 -2.140625 49.46875 0 53.234375 0 L 72.125 0 C 75.578125 0 77.40625 -1.53125 77.40625 -4.375 C 77.40625 -4.984375 77.3125 -5.6875 77.109375 -6.40625 Z M 157.5625 -203.171875 C 154.71875 -203.171875 152.484375 -201.046875 151.265625 -196.671875 L 116.515625 -75.78125 L 125.25 -40.4375 C 126.578125 -35.15625 128.609375 -32.3125 130.75 -32.3125 C 132.78125 -32.3125 134.90625 -34.953125 136.53125 -40.4375 L 166.609375 -142.21875 L 166.609375 -199.015625 C 166.609375 -201.34375 164.78125 -203.171875 162.4375 -203.171875 Z M 93.25 -118.75 C 92.234375 -122.921875 86.140625 -123.21875 84.921875 -118.953125 L 72.53125 -75.78125 L 89.59375 -6.40625 C 90.609375 -2.140625 93.453125 0 97.21875 0 L 116.109375 0 C 119.5625 0 121.390625 -1.53125 121.390625 -4.375 C 121.390625 -4.984375 121.296875 -5.6875 121.09375 -6.40625 Z M 93.25 -118.75 "/>
</symbol>
</g>
</defs>
<g id="surface1">
<rect x="0" y="0" width="1104.78125" height="1540.109375" style="fill:rgb(93%,73%,40%);fill-opacity:1;stroke:none;"/>
<g style="fill:rgb(0%,0%,0%);fill-opacity:1;">
  <use xlink:href="#glyph0-1" x="16" y="219.171875"/>
  <use xlink:href="#glyph0-2" x="194.796875" y="219.171875"/>
  <use xlink:href="#glyph0-3" x="373.59375" y="219.171875"/>
  <use xlink:href="#glyph0-4" x="552.390625" y="219.171875"/>
  <use xlink:href="#glyph0-5" x="731.1875" y="219.171875"/>
  <use xlink:href="#glyph0-6" x="909.984375" y="219.171875"/>
</g>
<g style="fill:rgb(0%,0%,0%);fill-opacity:1;">
  <use xlink:href="#glyph0-7" x="16" y="526.359375"/>
  <use xlink:href="#glyph0-8" x="194.796875" y="526.359375"/>
  <use xlink:href="#glyph0-9" x="373.59375" y="526.359375"/>
  <use xlink:href="#glyph0-10" x="552.390625" y="526.359375"/>
  <use xlink:href="#glyph0-11" x="731.1875" y="526.359375"/>
  <use xlink:href="#glyph0-12" x="909.984375" y="526.359375"/>
</g>
<g style="fill:rgb(0%,0%,0%);fill-opacity:1;">
  <use xlink:href="#glyph0-13" x="16" y="833.546875"/>
  <use xlink:href="#glyph0-14" x="194.796875" y="833.546875"/>
  <use xlink:href="#glyph0-15" x="373.59375" y="833.546875"/>
  <use xlink:href="#glyph0-16" x="552.390625" y="833.546875"/>
  <use xlink:href="#glyph0-17" x="731.1875" y="833.546875"/>
  <use xlink:href="#glyph0-18" x="909.984375" y="833.546875"/>
</g>
<g style="fill:rgb(0%,0%,0%);fill-opacity:1;">
  <use xlink:href="#glyph0-19" x="16" y="1140.734375"/>
  <use xlink:href="#glyph0-20" x="194.796875" y="1140.734375"/>
  <use xlink:href="#glyph0-21" x="373.59375" y="1140.734375"/>
  <use xlink:href="#glyph0-22" x="552.390625" y="1140.734375"/>
  <use xlink:href="#glyph0-23" x="731.1875" y="1140.734375"/>
  <use xlink:href="#glyph0-24" x="909.984375" y="1140.734375"/>
</g>
<g style="fill:rgb(0%,0%,0%);fill-opacity:1;">
  <use xlink:href="#glyph0-25" x="16" y="1447.921875"/>
  <use xlink:href="#glyph0-26" x="194.796875" y="1447.921875"/>
  <use xlink:href="#glyph0-27" x="373.59375" y="1447.921875"/>
</g>
</g>
</svg>
